%!PS-Adobe-3.0 EPSF-3.0
%%Title: sage-plots-for-calc2.tex/plot-1.eps
%%Creator: matplotlib version 1.3.1, http://matplotlib.org/
%%CreationDate: Tue Feb 24 00:36:28 2015
%%Orientation: portrait
%%BoundingBox: 24 185 587 606
%%EndComments
%%BeginProlog
/mpldict 8 dict def
mpldict begin
/m { moveto } bind def
/l { lineto } bind def
/r { rlineto } bind def
/c { curveto } bind def
/cl { closepath } bind def
/box {
m
1 index 0 r
0 exch r
neg 0 r
cl
} bind def
/clipbox {
box
clip
newpath
} bind def
%!PS-Adobe-3.0 Resource-Font
%%Title: Bitstream Vera Sans
%%Copyright: Copyright (c) 2003 by Bitstream, Inc. All Rights Reserved.
%%Creator: Converted from TrueType to type 3 by PPR
25 dict begin
/_d{bind def}bind def
/_m{moveto}_d
/_l{lineto}_d
/_cl{closepath eofill}_d
/_c{curveto}_d
/_sc{7 -1 roll{setcachedevice}{pop pop pop pop pop pop}ifelse}_d
/_e{exec}_d
/FontName /BitstreamVeraSans-Roman def
/PaintType 0 def
/FontMatrix[.001 0 0 .001 0 0]def
/FontBBox[-183 -236 1287 928]def
/FontType 3 def
/Encoding [ /parenleft /parenright /comma /period /zero /one /two /three /four /five /six /seven /eight ] def
/FontInfo 10 dict dup begin
/FamilyName (Bitstream Vera Sans) def
/FullName (Bitstream Vera Sans) def
/Notice (Copyright (c) 2003 by Bitstream, Inc. All Rights Reserved. Bitstream Vera is a trademark of Bitstream, Inc.) def
/Weight (Roman) def
/Version (Release 1.10) def
/ItalicAngle 0.0 def
/isFixedPitch false def
/UnderlinePosition -213 def
/UnderlineThickness 143 def
end readonly def
/CharStrings 13 dict dup begin
/parenleft{390 0 86 -131 310 759 _sc
310 759 _m
266 683 234 609 213 536 _c
191 463 181 389 181 314 _c
181 238 191 164 213 91 _c
234 17 266 -56 310 -131 _c
232 -131 _l
183 -54 146 20 122 94 _c
98 168 86 241 86 314 _c
86 386 98 459 122 533 _c
146 607 182 682 232 759 _c
310 759 _l
_cl}_d
/parenright{390 0 80 -131 304 759 _sc
80 759 _m
158 759 _l
206 682 243 607 267 533 _c
291 459 304 386 304 314 _c
304 241 291 168 267 94 _c
243 20 206 -54 158 -131 _c
80 -131 _l
123 -56 155 17 177 91 _c
198 164 209 238 209 314 _c
209 389 198 463 177 536 _c
155 609 123 683 80 759 _c
_cl}_d
/comma{318 0 77 -115 220 124 _sc
117 124 _m
220 124 _l
220 40 _l
140 -115 _l
77 -115 _l
117 40 _l
117 124 _l
_cl}_d
/period{318 0 107 0 210 124 _sc
107 124 _m
210 124 _l
210 0 _l
107 0 _l
107 124 _l
_cl}_d
/zero{636 0 66 -13 570 742 _sc
318 664 _m
267 664 229 639 203 589 _c
177 539 165 464 165 364 _c
165 264 177 189 203 139 _c
229 89 267 64 318 64 _c
369 64 407 89 433 139 _c
458 189 471 264 471 364 _c
471 464 458 539 433 589 _c
407 639 369 664 318 664 _c
318 742 _m
399 742 461 709 505 645 _c
548 580 570 486 570 364 _c
570 241 548 147 505 83 _c
461 19 399 -13 318 -13 _c
236 -13 173 19 130 83 _c
87 147 66 241 66 364 _c
66 486 87 580 130 645 _c
173 709 236 742 318 742 _c
_cl}_d
/one{636 0 110 0 544 729 _sc
124 83 _m
285 83 _l
285 639 _l
110 604 _l
110 694 _l
284 729 _l
383 729 _l
383 83 _l
544 83 _l
544 0 _l
124 0 _l
124 83 _l
_cl}_d
/two{{636 0 73 0 536 742 _sc
192 83 _m
536 83 _l
536 0 _l
73 0 _l
73 83 _l
110 121 161 173 226 239 _c
290 304 331 346 348 365 _c
380 400 402 430 414 455 _c
426 479 433 504 433 528 _c
433 566 419 598 392 622 _c
365 646 330 659 286 659 _c
255 659 222 653 188 643 _c
154 632 117 616 78 594 _c
78 694 _l
118 710 155 722 189 730 _c
223 738 255 742 284 742 _c
}_e{359 742 419 723 464 685 _c
509 647 532 597 532 534 _c
532 504 526 475 515 449 _c
504 422 484 390 454 354 _c
446 344 420 317 376 272 _c
332 227 271 164 192 83 _c
_cl}_e}_d
/three{{636 0 76 -13 556 742 _sc
406 393 _m
453 383 490 362 516 330 _c
542 298 556 258 556 212 _c
556 140 531 84 482 45 _c
432 6 362 -13 271 -13 _c
240 -13 208 -10 176 -4 _c
144 1 110 10 76 22 _c
76 117 _l
103 101 133 89 166 81 _c
198 73 232 69 268 69 _c
330 69 377 81 409 105 _c
441 129 458 165 458 212 _c
458 254 443 288 413 312 _c
383 336 341 349 287 349 _c
}_e{202 349 _l
202 430 _l
291 430 _l
339 430 376 439 402 459 _c
428 478 441 506 441 543 _c
441 580 427 609 401 629 _c
374 649 336 659 287 659 _c
260 659 231 656 200 650 _c
169 644 135 635 98 623 _c
98 711 _l
135 721 170 729 203 734 _c
235 739 266 742 296 742 _c
370 742 429 725 473 691 _c
517 657 539 611 539 553 _c
539 513 527 479 504 451 _c
481 423 448 403 406 393 _c
_cl}_e}_d
/four{636 0 49 0 580 729 _sc
378 643 _m
129 254 _l
378 254 _l
378 643 _l
352 729 _m
476 729 _l
476 254 _l
580 254 _l
580 172 _l
476 172 _l
476 0 _l
378 0 _l
378 172 _l
49 172 _l
49 267 _l
352 729 _l
_cl}_d
/five{{636 0 77 -13 549 729 _sc
108 729 _m
495 729 _l
495 646 _l
198 646 _l
198 467 _l
212 472 227 476 241 478 _c
255 480 270 482 284 482 _c
365 482 429 459 477 415 _c
525 370 549 310 549 234 _c
549 155 524 94 475 51 _c
426 8 357 -13 269 -13 _c
238 -13 207 -10 175 -6 _c
143 -1 111 6 77 17 _c
77 116 _l
106 100 136 88 168 80 _c
199 72 232 69 267 69 _c
}_e{323 69 368 83 401 113 _c
433 143 450 183 450 234 _c
450 284 433 324 401 354 _c
368 384 323 399 267 399 _c
241 399 214 396 188 390 _c
162 384 135 375 108 363 _c
108 729 _l
_cl}_e}_d
/six{{636 0 70 -13 573 742 _sc
330 404 _m
286 404 251 388 225 358 _c
199 328 186 286 186 234 _c
186 181 199 139 225 109 _c
251 79 286 64 330 64 _c
374 64 409 79 435 109 _c
461 139 474 181 474 234 _c
474 286 461 328 435 358 _c
409 388 374 404 330 404 _c
526 713 _m
526 623 _l
501 635 476 644 451 650 _c
425 656 400 659 376 659 _c
310 659 260 637 226 593 _c
}_e{192 549 172 482 168 394 _c
187 422 211 444 240 459 _c
269 474 301 482 336 482 _c
409 482 467 459 509 415 _c
551 371 573 310 573 234 _c
573 159 550 99 506 54 _c
462 9 403 -13 330 -13 _c
246 -13 181 19 137 83 _c
92 147 70 241 70 364 _c
70 479 97 571 152 639 _c
206 707 280 742 372 742 _c
396 742 421 739 447 735 _c
472 730 498 723 526 713 _c
_cl}_e}_d
/seven{636 0 82 0 551 729 _sc
82 729 _m
551 729 _l
551 687 _l
286 0 _l
183 0 _l
432 646 _l
82 646 _l
82 729 _l
_cl}_d
/eight{{636 0 68 -13 568 742 _sc
318 346 _m
271 346 234 333 207 308 _c
180 283 167 249 167 205 _c
167 161 180 126 207 101 _c
234 76 271 64 318 64 _c
364 64 401 76 428 102 _c
455 127 469 161 469 205 _c
469 249 455 283 429 308 _c
402 333 365 346 318 346 _c
219 388 _m
177 398 144 418 120 447 _c
96 476 85 511 85 553 _c
85 611 105 657 147 691 _c
188 725 245 742 318 742 _c
}_e{390 742 447 725 489 691 _c
530 657 551 611 551 553 _c
551 511 539 476 515 447 _c
491 418 459 398 417 388 _c
464 377 501 355 528 323 _c
554 291 568 251 568 205 _c
568 134 546 80 503 43 _c
459 5 398 -13 318 -13 _c
237 -13 175 5 132 43 _c
89 80 68 134 68 205 _c
68 251 81 291 108 323 _c
134 355 171 377 219 388 _c
183 544 _m
183 506 194 476 218 455 _c
}_e{242 434 275 424 318 424 _c
360 424 393 434 417 455 _c
441 476 453 506 453 544 _c
453 582 441 611 417 632 _c
393 653 360 664 318 664 _c
275 664 242 653 218 632 _c
194 611 183 582 183 544 _c
_cl}_e}_d
end readonly def

/BuildGlyph
 {exch begin
 CharStrings exch
 2 copy known not{pop /.notdef}if
 true 3 1 roll get exec
 end}_d

/BuildChar {
 1 index /Encoding get exch get
 1 index /BuildGlyph get exec
}_d

FontName currentdict end definefont pop
end
%%EndProlog
mpldict begin
24.792 185.94 translate
562.415 420.12 0 0 clipbox
gsave
0 0 m
562.415 0 l
562.415 420.12 l
0 420.12 l
cl
1.000 setgray
fill
grestore
gsave
15.5351 13.2444 m
555.215 13.2444 l
555.215 412.92 l
15.5351 412.92 l
cl
1.000 setgray
fill
grestore
/p0_0 {
newpath
translate
0 -3.16228 m
0.838646 -3.16228 1.64306 -2.82908 2.23607 -2.23607 c
2.82908 -1.64306 3.16228 -0.838646 3.16228 0 c
3.16228 0.838646 2.82908 1.64306 2.23607 2.23607 c
1.64306 2.82908 0.838646 3.16228 0 3.16228 c
-0.838646 3.16228 -1.64306 2.82908 -2.23607 2.23607 c
-2.82908 1.64306 -3.16228 0.838646 -3.16228 0 c
-3.16228 -0.838646 -2.82908 -1.64306 -2.23607 -2.23607 c
-1.64306 -2.82908 -0.838646 -3.16228 0 -3.16228 c
cl
} bind def
gsave
539.7 399.7 15.54 13.24 clipbox
392.84 392.32 p0_0
0.000 setgray
fill
grestore
1.000 setlinewidth
1 setlinejoin
2 setlinecap
[] 0 setdash
0.000 setgray
gsave
539.7 399.7 15.54 13.24 clipbox
25.9136 20.9305 m
46.0765 66.0627 l
56.718 89.4764 l
66.5775 110.732 l
77.5541 133.753 l
86.9945 152.905 l
92.9326 164.609 l
100.684 179.454 l
105.639 188.674 l
115.279 205.979 l
121.57 216.807 l
129.427 229.802 l
135.958 240.149 l
142.961 250.78 l
150.372 261.508 l
158.381 272.501 l
165.893 282.248 l
170.953 288.511 l
179.036 298.018 l
186.291 306.041 l
192.624 312.66 l
199.716 319.657 l
207.559 326.901 l
215.706 333.895 l
223.713 340.262 l
228.972 344.181 l
234.394 348.01 l
239.16 351.204 l
246.392 355.754 l
255.252 360.861 l
263.287 365.07 l
268.234 367.469 l
276.878 371.329 l
284.322 374.328 l
291.812 377.059 l
299.163 379.474 l
306.599 381.662 l
314.518 383.727 l
323.041 385.659 l
330.856 387.182 l
338.143 388.401 l
347.225 389.663 l
353.352 390.363 l
363.149 391.243 l
369.624 391.673 l
379.972 392.127 l
389.471 392.307 l
399.195 392.275 l
408.188 392.065 l
421.371 391.471 l
432.349 390.74 l
445.207 389.637 l
458.164 388.283 l
472.193 386.575 l
484.378 384.909 l
500.728 382.44 l
517.812 379.615 l
537.03 376.183 l
544.837 374.724 l
544.837 374.724 l
stroke
grestore
0.500 setlinewidth
0 setlinecap
gsave
/o {
gsave
newpath
translate
0.5 setlinewidth
1 setlinejoin
0 setlinecap
0 0 m
0 4 l
gsave
0.000 setgray
fill
grestore
stroke
grestore
} bind def
25.8875 20.8719 o
grestore
gsave
/o {
gsave
newpath
translate
0.5 setlinewidth
1 setlinejoin
0 setlinecap
0 0 m
0 4 l
gsave
0.000 setgray
fill
grestore
stroke
grestore
} bind def
129.677 20.8719 o
grestore
/BitstreamVeraSans-Roman findfont
10.000 scalefont
setfont
gsave
124.013269 9.278125 translate
0.000000 rotate
0.000000 0.000000 m /two glyphshow
6.362305 0.000000 m /zero glyphshow
grestore
gsave
/o {
gsave
newpath
translate
0.5 setlinewidth
1 setlinejoin
0 setlinecap
0 0 m
0 4 l
gsave
0.000 setgray
fill
grestore
stroke
grestore
} bind def
233.467 20.8719 o
grestore
gsave
227.678101 9.278125 translate
0.000000 rotate
0.000000 0.000000 m /four glyphshow
6.362305 0.000000 m /zero glyphshow
grestore
gsave
/o {
gsave
newpath
translate
0.5 setlinewidth
1 setlinejoin
0 setlinecap
0 0 m
0 4 l
gsave
0.000 setgray
fill
grestore
stroke
grestore
} bind def
337.257 20.8719 o
grestore
gsave
331.577308 9.278125 translate
0.000000 rotate
0.000000 0.000000 m /six glyphshow
6.362305 0.000000 m /zero glyphshow
grestore
gsave
/o {
gsave
newpath
translate
0.5 setlinewidth
1 setlinejoin
0 setlinecap
0 0 m
0 4 l
gsave
0.000 setgray
fill
grestore
stroke
grestore
} bind def
441.047 20.8719 o
grestore
gsave
435.359327 9.278125 translate
0.000000 rotate
0.000000 0.000000 m /eight glyphshow
6.362305 0.000000 m /zero glyphshow
grestore
gsave
/o {
gsave
newpath
translate
0.5 setlinewidth
1 setlinejoin
0 setlinecap
0 0 m
0 4 l
gsave
0.000 setgray
fill
grestore
stroke
grestore
} bind def
544.837 20.8719 o
grestore
gsave
536.172596 9.278125 translate
0.000000 rotate
0.000000 0.000000 m /one glyphshow
6.362305 0.000000 m /zero glyphshow
12.724609 0.000000 m /zero glyphshow
grestore
gsave
/o {
gsave
newpath
translate
0.5 setlinewidth
1 setlinejoin
0 setlinecap
0 0 m
0 2 l
gsave
0.000 setgray
fill
grestore
stroke
grestore
} bind def
51.835 20.8719 o
grestore
gsave
/o {
gsave
newpath
translate
0.5 setlinewidth
1 setlinejoin
0 setlinecap
0 0 m
0 2 l
gsave
0.000 setgray
fill
grestore
stroke
grestore
} bind def
77.7824 20.8719 o
grestore
gsave
/o {
gsave
newpath
translate
0.5 setlinewidth
1 setlinejoin
0 setlinecap
0 0 m
0 2 l
gsave
0.000 setgray
fill
grestore
stroke
grestore
} bind def
103.73 20.8719 o
grestore
gsave
/o {
gsave
newpath
translate
0.5 setlinewidth
1 setlinejoin
0 setlinecap
0 0 m
0 2 l
gsave
0.000 setgray
fill
grestore
stroke
grestore
} bind def
155.625 20.8719 o
grestore
gsave
/o {
gsave
newpath
translate
0.5 setlinewidth
1 setlinejoin
0 setlinecap
0 0 m
0 2 l
gsave
0.000 setgray
fill
grestore
stroke
grestore
} bind def
181.572 20.8719 o
grestore
gsave
/o {
gsave
newpath
translate
0.5 setlinewidth
1 setlinejoin
0 setlinecap
0 0 m
0 2 l
gsave
0.000 setgray
fill
grestore
stroke
grestore
} bind def
207.52 20.8719 o
grestore
gsave
/o {
gsave
newpath
translate
0.5 setlinewidth
1 setlinejoin
0 setlinecap
0 0 m
0 2 l
gsave
0.000 setgray
fill
grestore
stroke
grestore
} bind def
259.415 20.8719 o
grestore
gsave
/o {
gsave
newpath
translate
0.5 setlinewidth
1 setlinejoin
0 setlinecap
0 0 m
0 2 l
gsave
0.000 setgray
fill
grestore
stroke
grestore
} bind def
285.362 20.8719 o
grestore
gsave
/o {
gsave
newpath
translate
0.5 setlinewidth
1 setlinejoin
0 setlinecap
0 0 m
0 2 l
gsave
0.000 setgray
fill
grestore
stroke
grestore
} bind def
311.31 20.8719 o
grestore
gsave
/o {
gsave
newpath
translate
0.5 setlinewidth
1 setlinejoin
0 setlinecap
0 0 m
0 2 l
gsave
0.000 setgray
fill
grestore
stroke
grestore
} bind def
363.204 20.8719 o
grestore
gsave
/o {
gsave
newpath
translate
0.5 setlinewidth
1 setlinejoin
0 setlinecap
0 0 m
0 2 l
gsave
0.000 setgray
fill
grestore
stroke
grestore
} bind def
389.152 20.8719 o
grestore
gsave
/o {
gsave
newpath
translate
0.5 setlinewidth
1 setlinejoin
0 setlinecap
0 0 m
0 2 l
gsave
0.000 setgray
fill
grestore
stroke
grestore
} bind def
415.099 20.8719 o
grestore
gsave
/o {
gsave
newpath
translate
0.5 setlinewidth
1 setlinejoin
0 setlinecap
0 0 m
0 2 l
gsave
0.000 setgray
fill
grestore
stroke
grestore
} bind def
466.994 20.8719 o
grestore
gsave
/o {
gsave
newpath
translate
0.5 setlinewidth
1 setlinejoin
0 setlinecap
0 0 m
0 2 l
gsave
0.000 setgray
fill
grestore
stroke
grestore
} bind def
492.942 20.8719 o
grestore
gsave
/o {
gsave
newpath
translate
0.5 setlinewidth
1 setlinejoin
0 setlinecap
0 0 m
0 2 l
gsave
0.000 setgray
fill
grestore
stroke
grestore
} bind def
518.889 20.8719 o
grestore
gsave
/o {
gsave
newpath
translate
0.5 setlinewidth
1 setlinejoin
0 setlinecap
0 0 m
4 0 l
gsave
0.000 setgray
fill
grestore
stroke
grestore
} bind def
25.8875 20.8719 o
grestore
gsave
/o {
gsave
newpath
translate
0.5 setlinewidth
1 setlinejoin
0 setlinecap
0 0 m
4 0 l
gsave
0.000 setgray
fill
grestore
stroke
grestore
} bind def
25.8875 89.5079 o
grestore
gsave
7.559375 86.750126 translate
0.000000 rotate
0.000000 0.000000 m /zero glyphshow
6.362305 0.000000 m /period glyphshow
9.541016 0.000000 m /one glyphshow
grestore
gsave
/o {
gsave
newpath
translate
0.5 setlinewidth
1 setlinejoin
0 setlinecap
0 0 m
4 0 l
gsave
0.000 setgray
fill
grestore
stroke
grestore
} bind def
25.8875 158.144 o
grestore
gsave
7.637500 155.386189 translate
0.000000 rotate
0.000000 0.000000 m /zero glyphshow
6.362305 0.000000 m /period glyphshow
9.541016 0.000000 m /two glyphshow
grestore
gsave
/o {
gsave
newpath
translate
0.5 setlinewidth
1 setlinejoin
0 setlinecap
0 0 m
4 0 l
gsave
0.000 setgray
fill
grestore
stroke
grestore
} bind def
25.8875 226.78 o
grestore
gsave
7.434375 224.022252 translate
0.000000 rotate
0.000000 0.000000 m /zero glyphshow
6.362305 0.000000 m /period glyphshow
9.541016 0.000000 m /three glyphshow
grestore
gsave
/o {
gsave
newpath
translate
0.5 setlinewidth
1 setlinejoin
0 setlinecap
0 0 m
4 0 l
gsave
0.000 setgray
fill
grestore
stroke
grestore
} bind def
25.8875 295.416 o
grestore
gsave
7.200000 292.658315 translate
0.000000 rotate
0.000000 0.000000 m /zero glyphshow
6.362305 0.000000 m /period glyphshow
9.541016 0.000000 m /four glyphshow
grestore
gsave
/o {
gsave
newpath
translate
0.5 setlinewidth
1 setlinejoin
0 setlinecap
0 0 m
4 0 l
gsave
0.000 setgray
fill
grestore
stroke
grestore
} bind def
25.8875 364.052 o
grestore
gsave
7.512500 361.294379 translate
0.000000 rotate
0.000000 0.000000 m /zero glyphshow
6.362305 0.000000 m /period glyphshow
9.541016 0.000000 m /five glyphshow
grestore
gsave
/o {
gsave
newpath
translate
0.5 setlinewidth
1 setlinejoin
0 setlinecap
0 0 m
2 0 l
gsave
0.000 setgray
fill
grestore
stroke
grestore
} bind def
25.8875 34.5991 o
grestore
gsave
/o {
gsave
newpath
translate
0.5 setlinewidth
1 setlinejoin
0 setlinecap
0 0 m
2 0 l
gsave
0.000 setgray
fill
grestore
stroke
grestore
} bind def
25.8875 48.3263 o
grestore
gsave
/o {
gsave
newpath
translate
0.5 setlinewidth
1 setlinejoin
0 setlinecap
0 0 m
2 0 l
gsave
0.000 setgray
fill
grestore
stroke
grestore
} bind def
25.8875 62.0535 o
grestore
gsave
/o {
gsave
newpath
translate
0.5 setlinewidth
1 setlinejoin
0 setlinecap
0 0 m
2 0 l
gsave
0.000 setgray
fill
grestore
stroke
grestore
} bind def
25.8875 75.7807 o
grestore
gsave
/o {
gsave
newpath
translate
0.5 setlinewidth
1 setlinejoin
0 setlinecap
0 0 m
2 0 l
gsave
0.000 setgray
fill
grestore
stroke
grestore
} bind def
25.8875 103.235 o
grestore
gsave
/o {
gsave
newpath
translate
0.5 setlinewidth
1 setlinejoin
0 setlinecap
0 0 m
2 0 l
gsave
0.000 setgray
fill
grestore
stroke
grestore
} bind def
25.8875 116.962 o
grestore
gsave
/o {
gsave
newpath
translate
0.5 setlinewidth
1 setlinejoin
0 setlinecap
0 0 m
2 0 l
gsave
0.000 setgray
fill
grestore
stroke
grestore
} bind def
25.8875 130.69 o
grestore
gsave
/o {
gsave
newpath
translate
0.5 setlinewidth
1 setlinejoin
0 setlinecap
0 0 m
2 0 l
gsave
0.000 setgray
fill
grestore
stroke
grestore
} bind def
25.8875 144.417 o
grestore
gsave
/o {
gsave
newpath
translate
0.5 setlinewidth
1 setlinejoin
0 setlinecap
0 0 m
2 0 l
gsave
0.000 setgray
fill
grestore
stroke
grestore
} bind def
25.8875 171.871 o
grestore
gsave
/o {
gsave
newpath
translate
0.5 setlinewidth
1 setlinejoin
0 setlinecap
0 0 m
2 0 l
gsave
0.000 setgray
fill
grestore
stroke
grestore
} bind def
25.8875 185.598 o
grestore
gsave
/o {
gsave
newpath
translate
0.5 setlinewidth
1 setlinejoin
0 setlinecap
0 0 m
2 0 l
gsave
0.000 setgray
fill
grestore
stroke
grestore
} bind def
25.8875 199.326 o
grestore
gsave
/o {
gsave
newpath
translate
0.5 setlinewidth
1 setlinejoin
0 setlinecap
0 0 m
2 0 l
gsave
0.000 setgray
fill
grestore
stroke
grestore
} bind def
25.8875 213.053 o
grestore
gsave
/o {
gsave
newpath
translate
0.5 setlinewidth
1 setlinejoin
0 setlinecap
0 0 m
2 0 l
gsave
0.000 setgray
fill
grestore
stroke
grestore
} bind def
25.8875 240.507 o
grestore
gsave
/o {
gsave
newpath
translate
0.5 setlinewidth
1 setlinejoin
0 setlinecap
0 0 m
2 0 l
gsave
0.000 setgray
fill
grestore
stroke
grestore
} bind def
25.8875 254.234 o
grestore
gsave
/o {
gsave
newpath
translate
0.5 setlinewidth
1 setlinejoin
0 setlinecap
0 0 m
2 0 l
gsave
0.000 setgray
fill
grestore
stroke
grestore
} bind def
25.8875 267.962 o
grestore
gsave
/o {
gsave
newpath
translate
0.5 setlinewidth
1 setlinejoin
0 setlinecap
0 0 m
2 0 l
gsave
0.000 setgray
fill
grestore
stroke
grestore
} bind def
25.8875 281.689 o
grestore
gsave
/o {
gsave
newpath
translate
0.5 setlinewidth
1 setlinejoin
0 setlinecap
0 0 m
2 0 l
gsave
0.000 setgray
fill
grestore
stroke
grestore
} bind def
25.8875 309.143 o
grestore
gsave
/o {
gsave
newpath
translate
0.5 setlinewidth
1 setlinejoin
0 setlinecap
0 0 m
2 0 l
gsave
0.000 setgray
fill
grestore
stroke
grestore
} bind def
25.8875 322.871 o
grestore
gsave
/o {
gsave
newpath
translate
0.5 setlinewidth
1 setlinejoin
0 setlinecap
0 0 m
2 0 l
gsave
0.000 setgray
fill
grestore
stroke
grestore
} bind def
25.8875 336.598 o
grestore
gsave
/o {
gsave
newpath
translate
0.5 setlinewidth
1 setlinejoin
0 setlinecap
0 0 m
2 0 l
gsave
0.000 setgray
fill
grestore
stroke
grestore
} bind def
25.8875 350.325 o
grestore
gsave
/o {
gsave
newpath
translate
0.5 setlinewidth
1 setlinejoin
0 setlinecap
0 0 m
2 0 l
gsave
0.000 setgray
fill
grestore
stroke
grestore
} bind def
25.8875 377.779 o
grestore
gsave
/o {
gsave
newpath
translate
0.5 setlinewidth
1 setlinejoin
0 setlinecap
0 0 m
2 0 l
gsave
0.000 setgray
fill
grestore
stroke
grestore
} bind def
25.8875 391.507 o
grestore
gsave
/o {
gsave
newpath
translate
0.5 setlinewidth
1 setlinejoin
0 setlinecap
0 0 m
2 0 l
gsave
0.000 setgray
fill
grestore
stroke
grestore
} bind def
25.8875 405.234 o
grestore
0.800 setlinewidth
gsave
15.5351 20.8719 m
555.215 20.8719 l
stroke
grestore
gsave
25.8875 13.2444 m
25.8875 412.92 l
stroke
grestore
gsave
362.750513 402.476017 translate
0.000000 rotate
0.000000 0.000000 m /parenleft glyphshow
3.901367 0.000000 m /seven glyphshow
10.263672 0.000000 m /zero glyphshow
16.625977 0.000000 m /period glyphshow
19.804688 0.000000 m /seven glyphshow
26.166992 0.000000 m /one glyphshow
32.529297 0.000000 m /comma glyphshow
35.708008 0.000000 m /period glyphshow
38.886719 0.000000 m /five glyphshow
45.249023 0.000000 m /four glyphshow
51.611328 0.000000 m /one glyphshow
57.973633 0.000000 m /parenright glyphshow
grestore

end
showpage
