%!PS-Adobe-3.0 EPSF-3.0
%%Title: sage-plots-for-calc2.tex/plot-0.eps
%%Creator: matplotlib version 1.3.1, http://matplotlib.org/
%%CreationDate: Tue Feb 24 00:36:27 2015
%%Orientation: portrait
%%BoundingBox: 105 185 506 606
%%EndComments
%%BeginProlog
/mpldict 8 dict def
mpldict begin
/m { moveto } bind def
/l { lineto } bind def
/r { rlineto } bind def
/c { curveto } bind def
/cl { closepath } bind def
/box {
m
1 index 0 r
0 exch r
neg 0 r
cl
} bind def
/clipbox {
box
clip
newpath
} bind def
%!PS-Adobe-3.0 Resource-Font
%%Title: Bitstream Vera Sans
%%Copyright: Copyright (c) 2003 by Bitstream, Inc. All Rights Reserved.
%%Creator: Converted from TrueType to type 3 by PPR
25 dict begin
/_d{bind def}bind def
/_m{moveto}_d
/_l{lineto}_d
/_cl{closepath eofill}_d
/_c{curveto}_d
/_sc{7 -1 roll{setcachedevice}{pop pop pop pop pop pop}ifelse}_d
/_e{exec}_d
/FontName /BitstreamVeraSans-Roman def
/PaintType 0 def
/FontMatrix[.001 0 0 .001 0 0]def
/FontBBox[-183 -236 1287 928]def
/FontType 3 def
/Encoding [ /zero /four /five /eight /f /t ] def
/FontInfo 10 dict dup begin
/FamilyName (Bitstream Vera Sans) def
/FullName (Bitstream Vera Sans) def
/Notice (Copyright (c) 2003 by Bitstream, Inc. All Rights Reserved. Bitstream Vera is a trademark of Bitstream, Inc.) def
/Weight (Roman) def
/Version (Release 1.10) def
/ItalicAngle 0.0 def
/isFixedPitch false def
/UnderlinePosition -213 def
/UnderlineThickness 143 def
end readonly def
/CharStrings 6 dict dup begin
/zero{636 0 66 -13 570 742 _sc
318 664 _m
267 664 229 639 203 589 _c
177 539 165 464 165 364 _c
165 264 177 189 203 139 _c
229 89 267 64 318 64 _c
369 64 407 89 433 139 _c
458 189 471 264 471 364 _c
471 464 458 539 433 589 _c
407 639 369 664 318 664 _c
318 742 _m
399 742 461 709 505 645 _c
548 580 570 486 570 364 _c
570 241 548 147 505 83 _c
461 19 399 -13 318 -13 _c
236 -13 173 19 130 83 _c
87 147 66 241 66 364 _c
66 486 87 580 130 645 _c
173 709 236 742 318 742 _c
_cl}_d
/four{636 0 49 0 580 729 _sc
378 643 _m
129 254 _l
378 254 _l
378 643 _l
352 729 _m
476 729 _l
476 254 _l
580 254 _l
580 172 _l
476 172 _l
476 0 _l
378 0 _l
378 172 _l
49 172 _l
49 267 _l
352 729 _l
_cl}_d
/five{{636 0 77 -13 549 729 _sc
108 729 _m
495 729 _l
495 646 _l
198 646 _l
198 467 _l
212 472 227 476 241 478 _c
255 480 270 482 284 482 _c
365 482 429 459 477 415 _c
525 370 549 310 549 234 _c
549 155 524 94 475 51 _c
426 8 357 -13 269 -13 _c
238 -13 207 -10 175 -6 _c
143 -1 111 6 77 17 _c
77 116 _l
106 100 136 88 168 80 _c
199 72 232 69 267 69 _c
}_e{323 69 368 83 401 113 _c
433 143 450 183 450 234 _c
450 284 433 324 401 354 _c
368 384 323 399 267 399 _c
241 399 214 396 188 390 _c
162 384 135 375 108 363 _c
108 729 _l
_cl}_e}_d
/eight{{636 0 68 -13 568 742 _sc
318 346 _m
271 346 234 333 207 308 _c
180 283 167 249 167 205 _c
167 161 180 126 207 101 _c
234 76 271 64 318 64 _c
364 64 401 76 428 102 _c
455 127 469 161 469 205 _c
469 249 455 283 429 308 _c
402 333 365 346 318 346 _c
219 388 _m
177 398 144 418 120 447 _c
96 476 85 511 85 553 _c
85 611 105 657 147 691 _c
188 725 245 742 318 742 _c
}_e{390 742 447 725 489 691 _c
530 657 551 611 551 553 _c
551 511 539 476 515 447 _c
491 418 459 398 417 388 _c
464 377 501 355 528 323 _c
554 291 568 251 568 205 _c
568 134 546 80 503 43 _c
459 5 398 -13 318 -13 _c
237 -13 175 5 132 43 _c
89 80 68 134 68 205 _c
68 251 81 291 108 323 _c
134 355 171 377 219 388 _c
183 544 _m
183 506 194 476 218 455 _c
}_e{242 434 275 424 318 424 _c
360 424 393 434 417 455 _c
441 476 453 506 453 544 _c
453 582 441 611 417 632 _c
393 653 360 664 318 664 _c
275 664 242 653 218 632 _c
194 611 183 582 183 544 _c
_cl}_e}_d
/f{352 0 23 0 371 760 _sc
371 760 _m
371 685 _l
285 685 _l
253 685 230 678 218 665 _c
205 652 199 629 199 595 _c
199 547 _l
347 547 _l
347 477 _l
199 477 _l
199 0 _l
109 0 _l
109 477 _l
23 477 _l
23 547 _l
109 547 _l
109 585 _l
109 645 123 690 151 718 _c
179 746 224 760 286 760 _c
371 760 _l
_cl}_d
/t{392 0 27 0 368 702 _sc
183 702 _m
183 547 _l
368 547 _l
368 477 _l
183 477 _l
183 180 _l
183 135 189 106 201 94 _c
213 81 238 75 276 75 _c
368 75 _l
368 0 _l
276 0 _l
206 0 158 13 132 39 _c
106 65 93 112 93 180 _c
93 477 _l
27 477 _l
27 547 _l
93 547 _l
93 702 _l
183 702 _l
_cl}_d
end readonly def

/BuildGlyph
 {exch begin
 CharStrings exch
 2 copy known not{pop /.notdef}if
 true 3 1 roll get exec
 end}_d

/BuildChar {
 1 index /Encoding get exch get
 1 index /BuildGlyph get exec
}_d

FontName currentdict end definefont pop
end
%%EndProlog
mpldict begin
105.204 185.76 translate
401.593 420.48 0 0 clipbox
gsave
0 0 m
401.593 0 l
401.593 420.48 l
0 420.48 l
cl
1.000 setgray
fill
grestore
gsave
7.2 7.2 m
394.393 7.2 l
394.393 413.28 l
7.2 413.28 l
cl
1.000 setgray
fill
grestore
2.000 setlinewidth
1 setlinejoin
1 setlinecap
[] 0 setdash
0.000 setgray
gsave
387.2 406.1 7.2 7.2 clipbox
20.6997 29.3526 m
20.6997 68.2197 20.6997 107.087 20.6997 145.954 c
stroke
grestore
gsave
387.2 406.1 7.2 7.2 clipbox
25.6997 39.3526 m
20.6997 29.3526 l
15.6997 39.3526 l
25.6997 39.3526 l
cl
gsave
fill
grestore
stroke
grestore
gsave
387.2 406.1 7.2 7.2 clipbox
15.6997 135.954 m
20.6997 145.954 l
25.6997 135.954 l
15.6997 135.954 l
cl
gsave
fill
grestore
stroke
grestore
gsave
387.2 406.1 7.2 7.2 clipbox
20.6997 150.426 m
20.6997 234.696 20.6997 318.965 20.6997 403.235 c
stroke
grestore
gsave
387.2 406.1 7.2 7.2 clipbox
25.6997 160.426 m
20.6997 150.426 l
15.6997 160.426 l
25.6997 160.426 l
cl
gsave
fill
grestore
stroke
grestore
gsave
387.2 406.1 7.2 7.2 clipbox
15.6997 393.235 m
20.6997 403.235 l
25.6997 393.235 l
15.6997 393.235 l
cl
gsave
fill
grestore
stroke
grestore
1.000 setlinewidth
0 setlinecap
[6 6] 0 setdash
gsave
387.2 406.1 7.2 7.2 clipbox
23.7265 405.471 m
326.41 27.1166 l
stroke
grestore
gsave
387.2 406.1 7.2 7.2 clipbox
23.7265 148.19 m
326.41 27.1166 l
stroke
grestore
2 setlinecap
[] 0 setdash
gsave
387.2 406.1 7.2 7.2 clipbox
23.7265 148.19 m
14.646 148.19 l
stroke
grestore
gsave
387.2 406.1 7.2 7.2 clipbox
23.7265 405.471 m
14.646 405.471 l
stroke
grestore
gsave
387.2 406.1 7.2 7.2 clipbox
14.646 27.1166 m
386.947 27.1166 l
stroke
grestore
0 setlinecap
[6 6] 0 setdash
gsave
387.2 406.1 7.2 7.2 clipbox
14.646 21.0629 m
386.947 21.0629 l
stroke
grestore
2 setlinecap
[] 0 setdash
gsave
387.2 406.1 7.2 7.2 clipbox
14.646 15.0092 m
386.947 15.0092 l
stroke
grestore
/BitstreamVeraSans-Roman findfont
10.000 scalefont
setfont
gsave
20.430657 77.996988 translate
90.000000 rotate
0.000000 0.000000 m /four glyphshow
6.362305 0.000000 m /zero glyphshow
12.724609 0.000000 m /f glyphshow
16.120117 0.000000 m /t glyphshow
grestore
gsave
20.430657 267.275652 translate
90.000000 rotate
0.000000 0.000000 m /eight glyphshow
6.362305 0.000000 m /five glyphshow
12.724609 0.000000 m /f glyphshow
16.120117 0.000000 m /t glyphshow
grestore
0 setlinecap
gsave
387.2 406.1 7.2 7.2 clipbox
269.684 98.0234 m
263.583 93.1425 258.138 87.4946 253.482 81.2196 c
248.827 74.9447 245.001 68.0951 242.1 60.8407 c
stroke
grestore

end
showpage
